450,300,675,600,interdiction,0.9961836951166048
0,400,75,500,interdiction,0.9523044375656079
262,200,337,300,ceder,0.9120811761892765
375,100,675,500,ceder,0.8703530292669421
412,800,487,900,stop,0.8568644285111708
