clf_name,score
danger,0.9166666666666666
interdiction,0.875
obligation,0.8809523809523809
stop,0.9761904761904762
ceder,0.9411764705882352
frouge,0.9166666666666666
forange,0.9333333333333332
fvert,1.0
